{
    "/js/app.js": "/js/app.js?id=7e987e6b2dbde6589ce1",
    "/css/app.css": "/css/app.css?id=3ae1c9a62a9df45cea14",
    "/css/latest-tailwind.css": "/css/latest-tailwind.css?id=0986090610d0f3472ef8",
    "/js/sweetalert2.js": "/js/sweetalert2.js?id=87eafe129a982db7f52c",
    "/js/sweetalert2.css": "/js/sweetalert2.css?id=9b4d7a497c5fb25a3604",
    "/js/wdtLoading.js": "/js/wdtLoading.js?id=a67ac62f2640f4fcb0c9",
    "/js/wdtLoading.css": "/js/wdtLoading.css?id=3e4c252813fa168d05aa"
}
